date,district1,district2,district3,district4,district5,district6,total
2013-01,17,6,42,43,32,17,188
2013-02,13,13,23,18,18,5,108
2013-03,11,9,20,15,13,7,90
2013-04,7,4,15,32,7,11,91
2013-05,8,4,13,23,14,13,90
2013-06,128,52,87,91,70,117,654
2013-07,289,202,535,376,280,483,2598
2013-08,250,187,695,519,379,579,3130
2013-09,153,138,508,360,206,271,1963
2013-10,90,61,235,219,133,225,1155
2013-11,51,14,109,94,111,82,553
2013-12,25,6,47,55,52,33,261
2014-01,25,12,40,51,27,28,219
2014-02,24,2,11,13,5,8,75
2014-03,6,1,7,13,11,7,54
2014-04,8,1,6,11,17,14,66
2014-05,24,2,10,24,22,41,147
2014-06,73,5,21,27,44,28,237
2014-07,125,38,50,84,64,72,519
2014-08,118,31,146,87,86,54,626
2014-09,68,24,96,54,75,60,452
2014-10,32,23,67,74,41,35,326
2014-11,40,28,77,39,67,28,334
2014-12,19,6,25,25,38,28,169
2015-01,38,11,32,33,27,66,248
2015-02,10,12,17,29,28,20,139
2015-03,22,4,11,21,13,25,115
2015-04,24,5,11,21,8,12,97
2015-05,30,6,11,16,27,28,141
2015-06,137,14,23,43,54,31,362
2015-07,205,24,32,60,84,131,643
2015-08,386,94,96,173,161,156,1279
2015-09,268,132,116,195,118,149,1173
2015-10,90,122,107,193,111,153,931
2015-11,84,124,129,167,116,144,916
2015-12,38,67,102,89,95,129,624
2016-01,16,36,89,61,57,110,442
2016-02,23,10,33,35,20,30,181
2016-03,12,11,24,34,23,13,140
2016-04,8,7,29,33,16,8,121
2016-05,14,6,14,34,7,10,102
2016-06,10,12,13,58,32,15,168
2016-07,99,32,59,121,70,117,597
2016-08,130,49,131,176,129,190,966
2016-09,89,53,177,190,151,178,1005
2016-10,20,44,155,172,74,70,642
2016-11,9,36,106,115,45,63,448
2016-12,9,10,17,25,21,46,153
2017-01,15,15,36,39,21,24,180
2017-02,10,15,32,24,19,26,151
2017-03,8,11,23,23,10,17,110
2017-04,6,15,20,20,11,19,109
2017-05,11,24,28,27,21,32,171
2017-06,26,97,78,64,27,84,451
